[
  {"gensim":[
    "From Keyword Search To Discourse Mining - The Meaning Of Scientific Management In Dutch Vocabulary, 1900-1940"]}
,
  {"ELAN":[
    "New Facets Of The Multimedia Annotation Tool ELAN"]}
,
  {"Bookworm":[
    "Adding Flexibility to Large-Scale Text Visualization with HathiTrust+Bookworm"]}
,
  {"Protégé":[
    "When Traditional Ontologies are not Enough: Modelling and Visualizing Dynamic Ontologies in Semantic-Based Access to Texts"]}
,
  {"F4":[
    "Biblissima - Following Medieval Manuscripts and Incunabula through their Existence via a Semantic Web Application"]}
,
  {"Map Warper":[
    "Contextualizing Historical Places in a Gazetteer by Using Historical Maps and Linked Data"]}
,
  {"YAGO":[
    "Introducing HistoGraph 2: Exploration of Cultural Heritage Documents Based on Co-Occurrence Graphs"]}
,
  {"Neo4j Console":[
    "Introducing HistoGraph 2: Exploration of Cultural Heritage Documents Based on Co-Occurrence Graphs"]}
,
  {"TextRazor":[
    "Introducing HistoGraph 2: Exploration of Cultural Heritage Documents Based on Co-Occurrence Graphs"]}
,
  {"Audacity":[
    "Editing in a text-image-sound form: the eTalks"]}
,
  {"MediaWiki":[
    "Linking Qualitative and Quantitative Research by Thin Descriptions through Semantic Graphs. Experiments in Apparatus Design with Semantic CorA."]}
,
  {"PhiloLine":[
    "Digging into ECCO: Identifying Commonplaces and other Forms of Text Reuse at Scale"]}
,
  {"TEI Boilerplate":[
    "The journal _al-Muqtabas_ between _Shamela.ws_, HathiTrust, and GitHub: producing open, collaborative, and fully-referencable digital editions of early Arabic periodicals---with almost no funds."]}
,
  {"Markdown":[
    "Minimal Editions in the Classroom: A Pedagogical Proposal"]}
,
  {"TileMill":[
    "Extraction and Visualization of Toponyms in Diachronic Text Corpora"]}
,
  {"NetDraw":[
    "The Formation of Australia’s Economic History Community, 1950 – 1970: A Multidimensional Network Analysis"]}
,
  {"Transana":[
    "Reflecting On And Refracting User Needs Through Case Studies In The Light Of Europeana Research"]}
,
  {"HyperImage":[
    "Reflecting On And Refracting User Needs Through Case Studies In The Light Of Europeana Research"]}
,
  {"NVivo":[
    "Reflecting On And Refracting User Needs Through Case Studies In The Light Of Europeana Research"]}
,
  {"NodeXL":[
    "Reflecting On And Refracting User Needs Through Case Studies In The Light Of Europeana Research"]}
,
  {"Archive-It":[
    "Exploring and Discovering Archive-It Collections with Warcbase"]}
,
  {"Transkribus":[
    "From Handwritten Text to Structured Data: Alternatives to Editing Large Archival Series"]}
,
  {"Diva.js":[
    "The Encoded Medieval Antiphoner: an Open Access Digital Source for Music and Liturgical Pedagogy and Scholarship"]}
,
  {"Bokeh":[
    "New Maps for the Lettered City: a Data Visualization Exploration of 19th Century Salons in Mexico"]}
,
  {"sigma.js":[
    "New Maps for the Lettered City: a Data Visualization Exploration of 19th Century Salons in Mexico"]}
,
  {"Casual":[
    "What Do Boy Bands Tell Us About Disasters? The Social Media Response to the Nepal Earthquake"]}
,
  {"SNAP":[
    "Linked Ancient World Data: Relating the Past"]}
,
  {"Scripto":[
    "Digital Humanities in Cultural Areas Using Texts That Lack Word Spacing"]}
,
  {"Hypothes.is":[
    "Enhancing Close Reading"]}
,
  {"VexFlow":[
    "Tool-based Identification of Melodic Patterns in MusicXML Documents"]}
,
  {"CartoDB":[
    "Photogrammar"]}
,
  {"TextBlob":[
    "Beyond Shot Lengths – Using Language Data and Color Information as Additional Parameters for Quantitative Movie Analysis"]}
,
  {"Vertov":[
    "Beyond Shot Lengths – Using Language Data and Color Information as Additional Parameters for Quantitative Movie Analysis"]}
,
  {"Substance":[
    "Digital Literary Stylistics Workshop"]}
,
  {"TRAViz":[
    "Visualizing Mouvance: Towards an Alignment of Medieval Vernacular Text Traditions"]}
,
  {"Versioning Machine":[
    "Visualizing Mouvance: Towards an Alignment of Medieval Vernacular Text Traditions"]}
,
  {"Tumblr":[
    "Edit Histories and Literary Turf Wars: John Ashbery, Academic Criticism and Wikipedia *"]}
,
  {"Scribe":[
    "EVI-LINHD. A Virtual Research Environment for the Spanish-speaking Community"]}
,
  {"EVI-LINHD":[
    "EVI-LINHD. A Virtual Research Environment for the Spanish-speaking Community"]}
,
  {"CLARIN-PL":[
    "Where Close and Distant Readings Meet: Text Clustering Methods in Literary Analysis of Weblog Genres"]}
,
  {"Joomla":[
    "#dariahTeach: online teaching, MOOCs and beyond"]}
,
  {"Edge":[
    "Faceting and Mining Network Graphs"]}
,
  {"ImagePlot":[
    "Comparing Architectural Floor Plans: New Strategies"]}
,
  {"Lexos":[
    "Scholarly Requirements for Large Scale Text Analysis: A User Needs Assessment by the HathiTrust Research Center"]}
,
  {"ATLAS.ti":[
    "Scholarly Requirements for Large Scale Text Analysis: A User Needs Assessment by the HathiTrust Research Center"]}
,
  {"Textable":[
    "Visualising the Dynamics of Character Networks"]}
,
  {"Annotate":[
    "UpCASE – A Web Application for Building and Maintaining Language Resources"]}
,
  {"FromThePage":[
    "Collaborative Translation Using FromThePage"]}
,
  {"H-Net":[
    "Cultivating Digital Humanities Biomes: A Collaborative Model"]}
,
  {"Chronos Timeline":[
    "Blacks In American Medicine Archive: Exploring Forgotten Stories"]}
,
  {"Ghost":[
    "How IBM Watson Can Help Us Understand Character in Shakespeare: A Cognitive Computing Approach to the Plays."]}
,
  {"IRaMuTeQ":[
    "#ww1. The Great War on Twitter"]}
,
  {"VIVO":[
    "Taking VIVO into the Past: Adapting the VIVO Researcher Profile System to Historical Persons"]}
,
  {"spaCy":[
    "Introduction to Natural Language Processing"]}
,
  {"Ruby on Rails":[
    "The Kuzushiji Project: Developing a Mobile Learning Application for Reading Early Modern Japanese Books"]}
,
  {"Tesseract OCR":[
    "Detecting Musical Paratext at Scale"]}
,
  {"Collex":[
    "Defining the Core Entities of an Environment for Textual Processing in Literary Computing"]}
,
  {"TUSTEP":[
    "Defining the Core Entities of an Environment for Textual Processing in Literary Computing"]}
,
  {"AskSam":[
    "The DEFC-App: A Web-based Archaeological Data Management System for ‘Digitizing Early Farming Cultures’"]}
,
  {"Pandoc":[
    "Git-Lit: an Application of Distributed Version Control Technology toward the Creation of 50,000 Digital Scholarly Editions"]}
,
  {"Slack":[
    "Urban Youth and Community Media: A Digital Place-Making Process in Vanuatu"]}
,
  {"GeoTemCo":[
    "On the Distant Reading of Musicians' Biographies"]}
,
  {"Adobe After Effects":[
    "First We Feel Then We Fall - Multimedia Adaptation of Joyce's Finnegans Wake"]}
,
  {"PLATIN":[
    "Compiling a Database on Historical China from Local Records: The Local Gazetteers Project at MPIWG"]}
,
  {"Dataverse":[
    "Compiling a Database on Historical China from Local Records: The Local Gazetteers Project at MPIWG"]}
,
  {"Silk":[
    "Digital Criticism Platform for Evidence-based Digital Humanities with Applications to Historical Studies of Silk Road"]}
,
  {"DSpace":[
    "Digital Criticism Platform for Evidence-based Digital Humanities with Applications to Historical Studies of Silk Road"]}
,
  {"RoSE":[
    "Social Networks and Archival Context: People and Cultural Heritage"]}
,
  {"Pro Tools":[
    "Picture to Score: Driving Vector Animations with Music in the XML Ecosystem"]}
,
  {"Sibelius":[
    "Picture to Score: Driving Vector Animations with Music in the XML Ecosystem"]}
,
  {"Finale":[
    "Picture to Score: Driving Vector Animations with Music in the XML Ecosystem"]}
,
  {"MuseScore":[
    "Picture to Score: Driving Vector Animations with Music in the XML Ecosystem"]}
,
  {"ImageJ":[
    "Recovering Shared Heritage via Spectral Imaging: Problems, Solutions, Interpretations"]}
,
  {"Pipes":[
    "Climate Negotiation Analysis"]}
,
  {"HyperPo":[
    "A literary rat race"]}
,
  {"Spotify":[
    "SpotiBot-Turing testing Spotify"]}
,
  {"Freebase":[
    "Automatic Detection of Characters in Case Insensitive Text in Comics"]}
,
  {"arts-humanities.net":[
    "Contextualized Integration of Digital Humanities Research: Using the NeMO Ontology of Digital Humanities Methods"]}
,
  {"Project Quincy":[
    "Seeing the Argument: Visualize Your Database with DAVILA"]}
,
  {"CollateX":[
    "The »Hidden Kosmos« of scientific instruments in Alexander von Humboldt's »Vorlesungen über physikalische Geographie« – or: What on earth is an »Ariometer«?",
    "Textual Communities"]}
,
  {"AntConc":[
    "The Corpus of Revenge Tragedy (CoRT): Toward Interdisciplining Early Modern Digital Humanities and Genre Analysis",
    "Playing with French Drama: from Old Research Questions to New Research Tools"]}
,
  {"Dropbox":[
    "New Facets Of The Multimedia Annotation Tool ELAN",
    "OVAL: A Virtual Ecosystem for Immersive Scholarship and Teaching"]}
,
  {"GATE":[
    "Mapping Multilingual Responses To Famine And Dearth In The Early Modern Landscapes Of India And Britain",
    "A Tool for NLP-Preprocessing in Literary Text Analysis"]}
,
  {"Neatline":[
    "Mapping Multilingual Responses To Famine And Dearth In The Early Modern Landscapes Of India And Britain",
    "Wired!: Collaborative Teaching & Critical Digital Making In An Art History Classroom"]}
,
  {"Scalar":[
    "Editing in a text-image-sound form: the eTalks",
    "Thresholds: Valuing the Creative Process in Digital Publishing"]}
,
  {"Typical":[
    "REDEN ONLINE: Disambiguation, Linking and Visualisation of References in TEI Digital Editions",
    "Climate Negotiation Analysis"]}
,
  {"Jekyll":[
    "Minimal Editions in the Classroom: A Pedagogical Proposal",
    "Git-Lit: an Application of Distributed Version Control Technology toward the Creation of 50,000 Digital Scholarly Editions"]}
,
  {"Hypothesis":[
    "Engaging Students in Digital Literary Analysis: GALGO (Golden Age Literature Glossary Online), a Social Semiotic Platform",
    "Digital Criticism Platform for Evidence-based Digital Humanities with Applications to Historical Studies of Silk Road"]}
,
  {"OpenRefine":[
    "New Maps for the Lettered City: a Data Visualization Exploration of 19th Century Salons in Mexico",
    "The Digital Émigré: Russian Periodical Studies and DH in the Slavic Fields"]}
,
  {"Recogito":[
    "Linked Ancient World Data: Relating the Past",
    "A Place for Places: Current Trends and Challenges in the Development and Use of Geo-Historical Gazetteers"]}
,
  {"Tesserae":[
    "Big Data and the Study of Allusion: an Exploration of Tesserae's Multitext Capability",
    "Approaches to Thematic Classification for Latin Epic"]}
,
  {"VARD":[
    "Project COLEM for CREATE (University of Amsterdam)",
    "The Royal Society Corpus: Towards a high-quality corpus for studying diachronic variation in scientific writing"]}
,
  {"Photogrammar":[
    "Photogrammar",
    "Introduction to Natural Language Processing"]}
,
  {"word2vec":[
    "Wikidition: Towards A Multi-layer Network Model of Intertextuality",
    "Making Sense of Illustrated Handwritten Archives"]}
,
  {"Perl":[
    "The Stanford Code Poetry Slam through Critical Code Studies",
    "Introduction to Natural Language Processing"]}
,
  {"WordSmith":[
    "Khepri - a Modular View-Based Tool for Exploring (Historical Sociolinguistic) Data",
    "Pulp Science Fiction's Legacy to Women in Science"]}
,
  {"RAW":[
    "Khepri - a Modular View-Based Tool for Exploring (Historical Sociolinguistic) Data",
    "Reconstructing Past Teaching"]}
,
  {"CQPweb":[
    "Khepri - a Modular View-Based Tool for Exploring (Historical Sociolinguistic) Data",
    "The Royal Society Corpus: Towards a high-quality corpus for studying diachronic variation in scientific writing"]}
,
  {"Inkscape":[
    "Comparing Architectural Floor Plans: New Strategies",
    "Picture to Score: Driving Vector Animations with Music in the XML Ecosystem"]}
,
  {"SylvaDB":[
    "Seeing Andalucia's Late Gothic heritage through GIS and Graphs",
    "Multivalent reuse of web data about temporary art exhibitions: the Exhibitium project"]}
,
  {"WorldCat":[
    "Remediations of Polish Literary Bibliography: Towards a Lossless and Sustainable Retro-Conversion Model for Bibliographical Data",
    "Social Networks and Archival Context: People and Cultural Heritage"]}
,
  {"Things":[
    "Using Computer Numerical Control Techniques to Prototype Media History",
    "DH Poetry Modelling: a Quest for Philological and Technical Standardization"]}
,
  {"Orange":[
    "Visualising the Dynamics of Character Networks",
    "Harvesting History: Democratizing The Past Through The Digitization Of Community History"]}
,
  {"Juxta":[
    "Read, Play, Build: Teaching Sherlock Holmes through Digital Humanities",
    "Defining the Core Entities of an Environment for Textual Processing in Literary Computing"]}
,
  {"Tesseract":[
    "Detecting Musical Paratext at Scale",
    "Pulp Science Fiction's Legacy to Women in Science"]}
,
  {"Textual Communities":[
    "Defining the Core Entities of an Environment for Textual Processing in Literary Computing",
    "Textual Communities"]}
,
  {"Annotation Studio":[
    "Defining the Core Entities of an Environment for Textual Processing in Literary Computing",
    "Writing Composition in the Close Reading Cycle: Developing The Annotation Studio Idea Space"]}
,
  {"Leaflet":[
    "The DEFC-App: A Web-based Archaeological Data Management System for ‘Digitizing Early Farming Cultures’",
    "Authorial {X}: A Research and Teaching Platform for Literary Geography"]}
,
  {"TF-IDF":[
    "Authorial {X}: A Research and Teaching Platform for Literary Geography",
    "The Trace of Theory: Extracting Subsets from Large Collections"]}
,
  {"Google Scholar":[
    "Beyond Digital Humanities? Furthering the Exploration of Language Diversity and Pan-European Culture by Means of Transdisciplinary Research Infrastructures: Introducing the new DARIAH CC Science Gateway",
    "A Study of Knowledge Integration in Digital Humanities Based on Bibliographic Analysis",
    "Visual Forms of Information Presentation and Their Place in Formal Digital Scientific Communication"]}
,
  {"Solr":[
    "From Keyword Search To Discourse Mining - The Meaning Of Scientific Management In Dutch Vocabulary, 1900-1940",
    "Mapping the Bentham Corpus",
    "Climate Negotiation Analysis"]}
,
  {"WebLicht":[
    "New Facets Of The Multimedia Annotation Tool ELAN",
    "Defining the Core Entities of an Environment for Textual Processing in Literary Computing",
    "A Tool for NLP-Preprocessing in Literary Text Analysis"]}
,
  {"Annotator":[
    "New Facets Of The Multimedia Annotation Tool ELAN",
    "Pundit. Semantic Annotation for Digital Humanities",
    "Collaborative Annotation and Exploration of Literary Works in Learning Contexts"]}
,
  {"PostgreSQL":[
    "Geocoding Thousands of Fiscal Records: Methodological Approach for a Study on Urban Retail Trade in the Belle Époque",
    "From Index Cards to a Digital Information System: Teaching Data Modeling to Master's Students in History",
    "Authorial {X}: A Research and Teaching Platform for Literary Geography"]}
,
  {"Palladio":[
    "Printing in a Periphery: a Quantitative Study of Finnish Knowledge Production, 1640-1828",
    "Khepri - a Modular View-Based Tool for Exploring (Historical Sociolinguistic) Data",
    "The Digital Émigré: Russian Periodical Studies and DH in the Slavic Fields"]}
,
  {"TXM":[
    "The Latin of Matthew of Cracow (c. 1345 – 1410) – a corpus based study of his language and style",
    "The Holy and the Godless - Cultural Stereotypes Featured in the Language of the Polish Medieval Hagiography. A Corpus-based Study.",
    "Tackling Terms In Furetiere’s 'Dictionnaire Universel'"]}
,
  {"Zotero":[
    "Creating An EpiDoc Corpus for Ancient Sicily",
    "The DEFC-App: A Web-based Archaeological Data Management System for ‘Digitizing Early Farming Cultures’",
    "Rebuilding Digital Harlem for Sustainability and Change"]}
,
  {"Voyant Tools":[
    "Enhancing Close Reading",
    "Defining the Core Entities of an Environment for Textual Processing in Literary Computing",
    "Remapping Leigh Hunt’s Circles”: Voyant Tools and Hunt’s Dramatic Criticism"]}
,
  {"Firefox":[
    "A Web-based Tool Called Gauntlet: From Iterative Design To Interactive Drawings Annotation",
    "View Source: Reading the Hidden Texts of the Web",
    "Unlocking The Mayan Script With Unicode"]}
,
  {"Chrome":[
    "A Web-based Tool Called Gauntlet: From Iterative Design To Interactive Drawings Annotation",
    "The Kuzushiji Project: Developing a Mobile Learning Application for Reading Early Modern Japanese Books",
    "Unlocking The Mayan Script With Unicode"]}
,
  {"Mallet":[
    "Testing the Doctrine of Election: A Computational Approach to Karl Barth’s Church Dogmatics",
    "Topical Diversification Over Time In The Royal Society Corpus",
    "The Trace of Theory: Extracting Subsets from Large Collections"]}
,
  {"nodegoat":[
    "Mapping European Periodical Counterpublics: Building a Sustainable Collaborative Framework for European Periodical Studies",
    "correspSearch - A Web Service to Connect Diverse Scholarly Editions of Letters",
    "Exploring Networks Of Confidentiality And Secrecy In Early Modern Transconfessional Correspondences"]}
,
  {"TRACER":[
    "The digital breadcrumb trail of Brothers Grimm",
    "Digital Folkloristics: the Use of Computational Methods in Revealing the Characteristics of Folkloric Communication",
    "Approaches to Thematic Classification for Latin Epic"]}
,
  {"ArcGIS":[
    "Seeing Andalucia's Late Gothic heritage through GIS and Graphs",
    "An Iterative 3DGIS Analysis of the Role of Visibility in Ancient Landscapes",
    "Mapping Imagined and Experienced Places: An Exploration of the Geography of Willa Cather’s Writing"]}
,
  {"Google Ngram Viewer":[
    "Data mining digital libraries",
    "Chronological corpora: Challenges and opportunities of sequential analysis. The example of ChronoPress corpus of Polish",
    "Compiling a Database on Historical China from Local Records: The Local Gazetteers Project at MPIWG"]}
,
  {"Weka":[
    "ARLO (Adaptive Recognition with Layered Optimization): a Prototype for High Performance Analysis of Sound Collections in the Humanities",
    "Straight Talk! Automatic Recognition of Direct Speech in Nineteenth-Century French Novels",
    "WebSty – an Open Web-based System for Exploring Stylometric Structures in Document Collections"]}
,
  {"EEBO-TCP":[
    "The Corpus of Revenge Tragedy (CoRT): Toward Interdisciplining Early Modern Digital Humanities and Genre Analysis",
    "Digging into ECCO: Identifying Commonplaces and other Forms of Text Reuse at Scale",
    "Public and Private Views of Texts in Digital Editions – The Case of the Kanseki Repository",
    "Early English Books in Context: Towards a History of the Technological Humanities"]}
,
  {"HathiTrust Research Center":[
    "Adding Flexibility to Large-Scale Text Visualization with HathiTrust+Bookworm",
    "Scholarly Requirements for Large Scale Text Analysis: A User Needs Assessment by the HathiTrust Research Center",
    "Mining Texts with the Extracted Features Dataset",
    "The Trace of Theory: Extracting Subsets from Large Collections"]}
,
  {"GeoNames":[
    "Biblissima - Following Medieval Manuscripts and Incunabula through their Existence via a Semantic Web Application",
    "correspSearch - A Web Service to Connect Diverse Scholarly Editions of Letters",
    "A Place for Places: Current Trends and Challenges in the Development and Use of Geo-Historical Gazetteers",
    "The Project Zeri Photo Archive: Towards a Model for Defining Authoritative Authorship Attributions"]}
,
  {"Pundit":[
    "Linking Qualitative and Quantitative Research by Thin Descriptions through Semantic Graphs. Experiments in Apparatus Design with Semantic CorA.",
    "REDEN ONLINE: Disambiguation, Linking and Visualisation of References in TEI Digital Editions",
    "Pundit. Semantic Annotation for Digital Humanities",
    "Defining the Core Entities of an Environment for Textual Processing in Literary Computing"]}
,
  {"GAMS":[
    "Stefan George Digital: Exploring Typography In A Digital Scholarly Edition",
    "Creating A Management Plan For A Cultural Heritage Project - Best Practise",
    "GAMS and Cirilo: research data preservation and presentation",
    "Cantus Network – a Semantically Enriched Digital Edition of Libri Ordinarii of the Salzburg Metropolitan Province"]}
,
  {"WordPress":[
    "Agréger le passé en ligne: Euchronie, le passé ici et maintenant!",
    "#dariahTeach: online teaching, MOOCs and beyond",
    "Researchers’ perceptions of DH trends and topics in the English and Spanish-speaking community. DayofDH data as a case study.",
    "WordPress as a Framework for Automated Data Capture, Filtering and Structuring Processes. The New Order of the Authors"]}
,
  {"D3.js":[
    "Exploring and Discovering Archive-It Collections with Warcbase",
    "Tool-based Identification of Melodic Patterns in MusicXML Documents",
    "Visualizing the Gradual Production of a Text",
    "Repairing William Playfair: Digital Fabrication, Design Theory, and the Long History of Data Visualization"]}
,
  {"eXist-db":[
    "Medialatinitas.eu. Towards Meaningful Integration and Retrieval of Resources for Medieval Latin",
    "A lesson in applied minimalism: adopting the TEI processing model",
    "TEI Processing Model Toolbox: Power To The Editor",
    "Deux Projets D'Édition Numérique Dans Le Cadre Du Projet SyMoGIH: Le Journal De Léonard Michon Et Les Actes Des Synodes Des Églises Réformées De Bourgogne"]}
,
  {"Ruby":[
    "Digital Humanities in Cultural Areas Using Texts That Lack Word Spacing",
    "Introduction to Natural Language Processing",
    "The Kuzushiji Project: Developing a Mobile Learning Application for Reading Early Modern Japanese Books",
    "Authorial {X}: A Research and Teaching Platform for Literary Geography"]}
,
  {"Bootstrap":[
    "Tool-based Identification of Melodic Patterns in MusicXML Documents",
    "Stylometry on the Silver Screen: Authorial and Translatorial Signals in Film Dialogue",
    "Tracing the Genesis of Pessoa's Envisioned Work: a Digital Edition of his Editorial Projects and Publications",
    "The DEFC-App: A Web-based Archaeological Data Management System for ‘Digitizing Early Farming Cultures’"]}
,
  {"HathiTrust Digital Library":[
    "Adding Flexibility to Large-Scale Text Visualization with HathiTrust+Bookworm",
    "Scholarly Requirements for Large Scale Text Analysis: A User Needs Assessment by the HathiTrust Research Center",
    "vWise: Visual Workspace for Information Seeking and Exploration",
    "Mining Texts with the Extracted Features Dataset",
    "A Comparative Analysis of Bibliographic Ontologies: Implications for Digital Humanities"]}
,
  {"Google Maps":[
    "Contextualizing Historical Places in a Gazetteer by Using Historical Maps and Linked Data",
    "Creating An EpiDoc Corpus for Ancient Sicily",
    "Linked Ancient World Data: Relating the Past",
    "Digitally Mapping Romantic Literature and Culture",
    "Exploring and Evaluating Cartographic (miss)Representation in a Sample of Web-based Geohumanities Projects"]}
,
  {"Lucene":[
    "Digital Resources and Research Data in the Digital Humanities: The Digital Knowledge Store at the Berlin-Brandenburg Academy of Sciences and Humanities",
    "Creating An EpiDoc Corpus for Ancient Sicily",
    "SMTP: Stedelijk Museum Text Mining Project",
    "UpCASE – A Web Application for Building and Maintaining Language Resources",
    "Creating Feminist Infrastructure in the Digital Humanities"]}
,
  {"Drupal":[
    "Making George Washington's Financial Documents Accessible: Transcription, Data, and the Drupal Solution",
    "Free FannyPacks: A Model for the Easy Digital Publication of Archival Periodical Material",
    "The North Carolina Jukebox Project: Archives Alive and the Making of Digital Cultural Heritage",
    "Working with WissKI – A Virtual Research Environment for Object Documentation and Object-Based Research",
    "#dariahTeach: online teaching, MOOCs and beyond",
    "Deux Projets D'Édition Numérique Dans Le Cadre Du Projet SyMoGIH: Le Journal De Léonard Michon Et Les Actes Des Synodes Des Églises Réformées De Bourgogne"]}
,
  {"Gallery":[
    "Digital Palaeography: What is digital about it?",
    "Digitale Tools und Methoden für die geisteswissenschaftliche Forschung praxisnah erklärt: Ein neues Format im Test.",
    "Boundary Land: Diversity as a defining feature of the Digital Humanities",
    "Visual Patterns Discovery in Large Databases of Paintings",
    "DIVAServices-Spotlight – Experimenting with Document Image Analysis Methods in the Web",
    "Enabling Complex Analysis of Large-Scale Digital Collections: Humanities Research, High Performance Computing, and transforming access to British Library Digital Collections"]}
,
  {"Github":[
    "Editing in a text-image-sound form: the eTalks",
    "Minimal Editions in the Classroom: A Pedagogical Proposal",
    "Printing in a Periphery: a Quantitative Study of Finnish Knowledge Production, 1640-1828",
    "Public and Private Views of Texts in Digital Editions – The Case of the Kanseki Repository",
    "Bringing Migration Data Into Context Using Digital Computational Methods",
    "Curating Just-In-Time Datasets from the Web"]}
,
  {"Paper":[
    "Printing in a Periphery: a Quantitative Study of Finnish Knowledge Production, 1640-1828",
    "Linked Ancient World Data: Relating the Past",
    "Using Big Data Techniques For Searching Digital Archives: use cases in Digital Humanities",
    "The Scholarly Digital Edition: Best Practices, Guidelines, and Peer Evaluation",
    "Intersectional Scholarship in Electronic Literature and Digital Humanities",
    "Choosing Words for Stylometric Authorship Attribution"]}
,
  {"Annotations":[
    "Enhancing Close Reading",
    "Adding Semantics To Comics Using A Crowdsourcing Approach",
    "Pundit. Semantic Annotation for Digital Humanities",
    "Entities as topic labels: improving topic interpretability and evaluability combining Entity Linking and Labeled LDA",
    "The Models of Authority Project: Extending the DigiPal Framework for Script and Decoration",
    "Critical Edition as Graph: The Chronicle of Matthew of Edessa Online"]}
,
  {"MySQL":[
    "A Web-based Tool Called Gauntlet: From Iterative Design To Interactive Drawings Annotation",
    "The First World War in Perm Provincial Periodicals",
    "#ww1. The Great War on Twitter",
    "Implementation of a National Data Center for the Humanities (DaSCH)",
    "Rebuilding Digital Harlem for Sustainability and Change",
    "Seeing the Argument: Visualize Your Database with DAVILA"]}
,
  {"TextGrid":[
    "KARREK: Building and Annotating a Kafka/Reference Corpus",
    "Comparison of Methods for the Identification of Main Characters in German Novels",
    "The digital breadcrumb trail of Brothers Grimm",
    "Defining the Core Entities of an Environment for Textual Processing in Literary Computing",
    "Significance Testing for the Classification of Literary Subgenres",
    "Toward A Use-Value Paradigm For The Sustainability Of Digital Research",
    "Theatre Plays as 'Small Worlds'? Network Data on the History and Typology of German Drama, 1730–1930"]}
,
  {"Google Books":[
    "The journal _al-Muqtabas_ between _Shamela.ws_, HathiTrust, and GitHub: producing open, collaborative, and fully-referencable digital editions of early Arabic periodicals---with almost no funds.",
    "Measuring the Dynamics of Lexico-Semantic Change Since the German Romantic Period",
    "When DH Meets Law: Problems, Solutions, Perspectives",
    "Tool-based Identification of Melodic Patterns in MusicXML Documents",
    "The digital breadcrumb trail of Brothers Grimm",
    "Data mining digital libraries",
    "Chronological corpora: Challenges and opportunities of sequential analysis. The example of ChronoPress corpus of Polish",
    "The Attribution of the Lazarillo de Tormes. Shedding Some Light into a Centuries Old Problem"]}
,
  {"Excel":[
    "Méthodes computationnelles et analyse d'une langue de chancellerie : le logiciel d'analyse textuelle Machiato et la correspondance diplomatique et administrative de Machiavel",
    "A Web-based Tool Called Gauntlet: From Iterative Design To Interactive Drawings Annotation",
    "Khepri - a Modular View-Based Tool for Exploring (Historical Sociolinguistic) Data",
    "Big Data: Complex Systems and Text Analysis",
    "Microanalyzing Parts of Texts",
    "Repairing William Playfair: Digital Fabrication, Design Theory, and the Long History of Data Visualization",
    "A Tool for NLP-Preprocessing in Literary Text Analysis",
    "Implementation of a National Data Center for the Humanities (DaSCH)",
    "The Trace of Theory: Extracting Subsets from Large Collections"]}
,
  {"Omeka":[
    "The North Carolina Jukebox Project: Archives Alive and the Making of Digital Cultural Heritage",
    "Digital Humanities in Cultural Areas Using Texts That Lack Word Spacing",
    "Wired!: Collaborative Teaching & Critical Digital Making In An Art History Classroom",
    "Digital Archiving and Storytelling in the Classroom with Omeka and CurateScape",
    "Harvesting History: Democratizing The Past Through The Digitization Of Community History",
    "Interoperability: a new horizon for data sharing in Humanities and Social Sciences. The input of three digital services developed by Huma-Num",
    "A DH-Leavened Musicological Toolbox",
    "Deux Projets D'Édition Numérique Dans Le Cadre Du Projet SyMoGIH: Le Journal De Léonard Michon Et Les Actes Des Synodes Des Églises Réformées De Bourgogne",
    "Mapping Kipnis"]}
,
  {"Papers":[
    "Making George Washington's Financial Documents Accessible: Transcription, Data, and the Drupal Solution",
    "The North Carolina Jukebox Project: Archives Alive and the Making of Digital Cultural Heritage",
    "Digitale Tools und Methoden für die geisteswissenschaftliche Forschung praxisnah erklärt: Ein neues Format im Test.",
    "Digital Literary Stylistics Workshop",
    "Mapping the Bentham Corpus",
    "Topical Diversification Over Time In The Royal Society Corpus",
    "Notes from the Transcription Desk: Modes of engagement between the community and the resource of the Letters of 1916",
    "Social Networks and Archival Context: People and Cultural Heritage",
    "Toccata : Text-Oriented Computational Classifier Applicable To Authorship",
    "Intersectional Scholarship in Electronic Literature and Digital Humanities",
    "Choosing Words for Stylometric Authorship Attribution"]}
,
  {"stylo":[
    "The Latin of Matthew of Cracow (c. 1345 – 1410) – a corpus based study of his language and style",
    "Testing Delta on Chinese Texts",
    "Stylometry on the Silver Screen: Authorial and Translatorial Signals in Film Dialogue",
    "Where Close and Distant Readings Meet: Text Clustering Methods in Literary Analysis of Weblog Genres",
    "A Tool for NLP-Preprocessing in Literary Text Analysis",
    "Authorship Attribution of Mediaeval German Text: Style and Contents in Apollonius von Tyrland",
    "WebSty – an Open Web-based System for Exploring Stylometric Structures in Document Collections",
    "Jonathan Edwards and Thomas Foxcroft: In Pursuit of Stylometric Traces of the Editor",
    "A literary rat race",
    "Go Set A Watchman while we Kill the Mockingbird in Cold Blood, with Cats and Other People",
    "Oulipian Stylometry",
    "Time Series Analysis Enhances Authorship Attribution",
    "All in the Family: Testing Burrows’ Delta on Robert Louis Stevenson’s Collaboratively Authored Volumes The Dynamiter and The Wrecker"]}
,
  {"Gephi":[
    "Building Large Persons’ Networks to Explore Digital Corpora",
    "Exploring and Discovering Archive-It Collections with Warcbase",
    "New Maps for the Lettered City: a Data Visualization Exploration of 19th Century Salons in Mexico",
    "What Do Boy Bands Tell Us About Disasters? The Social Media Response to the Nepal Earthquake",
    "SMTP: Stedelijk Museum Text Mining Project",
    "Stylometry on the Silver Screen: Authorial and Translatorial Signals in Film Dialogue",
    "The Great War on the Web: the Making of Citing and Referencing by Amateurs",
    "Visual Network Analysis with Gephi Workshop",
    "Towards a Cross-generation Social Network for Jewish Sages",
    "Faceting and Mining Network Graphs",
    "Mapping the Bentham Corpus",
    "#ww1. The Great War on Twitter",
    "The Digital Émigré: Russian Periodical Studies and DH in the Slavic Fields",
    "Jonathan Edwards and Thomas Foxcroft: In Pursuit of Stylometric Traces of the Editor",
    "Go Set A Watchman while we Kill the Mockingbird in Cold Blood, with Cats and Other People",
    "Exploring Networks Of Confidentiality And Secrecy In Early Modern Transconfessional Correspondences"]}
,
  {"Twitter":[
    "Authorship Attribution Using Different Languages",
    "APIs in Digital Humanities: The Infrastructural Turn",
    "Curating Community: Building A Communications Strategy For The European Association For Digital Humanities",
    "Exploring and Discovering Archive-It Collections with Warcbase",
    "Digitale Tools und Methoden für die geisteswissenschaftliche Forschung praxisnah erklärt: Ein neues Format im Test.",
    "What Do Boy Bands Tell Us About Disasters? The Social Media Response to the Nepal Earthquake",
    "Biographical Data Workshop: modeling, sharing and analyzing people’s lives",
    "Edit Histories and Literary Turf Wars: John Ashbery, Academic Criticism and Wikipedia *",
    "Visual Network Analysis with Gephi Workshop",
    "Digital Folkloristics: the Use of Computational Methods in Revealing the Characteristics of Folkloric Communication",
    "How IBM Watson Can Help Us Understand Character in Shakespeare: A Cognitive Computing Approach to the Plays.",
    "#ww1. The Great War on Twitter",
    "View Source: Reading the Hidden Texts of the Web",
    "Read, Play, Build: Teaching Sherlock Holmes through Digital Humanities",
    "Curating Just-In-Time Datasets from the Web",
    "The Digital Scholarship Training Programme at British Library: Concluding Report & Future Developments",
    "Language Attitudes of Twitter Users Toward New York City English",
    "Automatic Emotion Detection for Quantitative Literary Studies *"]}
,
  {"JavaScript":[
    "Adding Value to a Research Infrastructure Through User-contributed ePublications",
    "Editing in a text-image-sound form: the eTalks",
    "Minimal Editions in the Classroom: A Pedagogical Proposal",
    "Medialatinitas.eu. Towards Meaningful Integration and Retrieval of Resources for Medieval Latin",
    "Tool-based Identification of Melodic Patterns in MusicXML Documents",
    "Development of a Support Tool for Categorizing Ukiyo-e’s Pictorial Themes: A System to Deal with Visual Features and Similarities",
    "EVT 2.0: a new architecture for critical editions in digital form",
    "Project COLEM for CREATE (University of Amsterdam)",
    "Cross-Institutional Music Document Search",
    "Visualising the Dynamics of Character Networks",
    "Visualizing the Gradual Production of a Text",
    "The DEFC-App: A Web-based Archaeological Data Management System for ‘Digitizing Early Farming Cultures’",
    "Authorial {X}: A Research and Teaching Platform for Literary Geography",
    "First We Feel Then We Fall - Multimedia Adaptation of Joyce's Finnegans Wake",
    "Theatre Plays as 'Small Worlds'? Network Data on the History and Typology of German Drama, 1730–1930",
    "Collaborative Annotation and Exploration of Literary Works in Learning Contexts",
    "Prototypes as Thinking through Making. Decision Points and Evaluation in Prototyping a Visualisation Framework for Historical Documents",
    "Visualising Cultural Spheres – Virtual Tours and Epigraphical Data"]}
,
  {"Topic modeling":[
    "From Keyword Search To Discourse Mining - The Meaning Of Scientific Management In Dutch Vocabulary, 1900-1940",
    "Diplomatic History by Data",
    "SMTP: Stedelijk Museum Text Mining Project",
    "Testing the Doctrine of Election: A Computational Approach to Karl Barth’s Church Dogmatics",
    "What's in a Topic Model",
    "Literary Concepts: The Past and the Future",
    "Data mining digital libraries",
    "Contextualizing Receptions of World Literature by Mining Multilingual Wikipedias",
    "Entities as topic labels: improving topic interpretability and evaluability combining Entity Linking and Labeled LDA",
    "Read, Play, Build: Teaching Sherlock Holmes through Digital Humanities",
    "Topic Modeling Literary Quality",
    "Mining Texts with the Extracted Features Dataset",
    "The Digital Émigré: Russian Periodical Studies and DH in the Slavic Fields",
    "Data Praxis in the Digital Humanities: Use, Production, Access",
    "Climate Negotiation Analysis",
    "Quantitative Analyses of Chinese Poetry of Tang and Song Dynasties: Using Changing Colors and Innovative Terms as Examples",
    "The Trace of Theory: Extracting Subsets from Large Collections",
    "Corpus Analyses of Multimodal Narrative: The Example of Graphic Novels",
    "The Preparation of the Topic Model"]}
,
  {"Python":[
    "APIs in Digital Humanities: The Infrastructural Turn",
    "Méthodes computationnelles et analyse d'une langue de chancellerie : le logiciel d'analyse textuelle Machiato et la correspondance diplomatique et administrative de Machiavel",
    "Translating Electronic Literature. Multicultural, Multilingual and Cross-Platform Encounters",
    "RAPSCAPE – un’esplorazione dell’universo linguistico del rap attraverso il text-mining e la data-visualization",
    "New Maps for the Lettered City: a Data Visualization Exploration of 19th Century Salons in Mexico",
    "Project COLEM for CREATE (University of Amsterdam)",
    "Beyond Shot Lengths – Using Language Data and Color Information as Additional Parameters for Quantitative Movie Analysis",
    "Full Stack DH: Building a Virtual Research Environment on a Raspberry PI",
    "Metaphor Mining in Historical German Novels: Using Unsupervised Learning to Uncover Conceptual Systems in Literature.",
    "Introduction to Natural Language Processing",
    "The DEFC-App: A Web-based Archaeological Data Management System for ‘Digitizing Early Farming Cultures’",
    "Git-Lit: an Application of Distributed Version Control Technology toward the Creation of 50,000 Digital Scholarly Editions",
    "A Tool for NLP-Preprocessing in Literary Text Analysis",
    "Mining Texts with the Extracted Features Dataset",
    "Mobile Makerspaces: Te(a)chnology, Design and Digital Humanities",
    "Language Attitudes of Twitter Users Toward New York City English",
    "First We Feel Then We Fall - Multimedia Adaptation of Joyce's Finnegans Wake",
    "Theatre Plays as 'Small Worlds'? Network Data on the History and Typology of German Drama, 1730–1930",
    "Complex Networks-Based Approach to Russian Rhyme History Description: Linguostatistics and Database",
    "WebSty – an Open Web-based System for Exploring Stylometric Structures in Document Collections",
    "Toccata : Text-Oriented Computational Classifier Applicable To Authorship",
    "The Trace of Theory: Extracting Subsets from Large Collections"]}
]
