{"total_number_of_pubs": 1560,
  "number_of_distinct_extracted_toolnames": 1280,
  "number_of_pubs_without_tool_mentions": 1546,
  "number_of_pubs_with_tool_mentions": 14,
  "total_number_of_sentences": 67648}